{
  "project_info": {
    "project_number": "673184145048",
    "firebase_url": "https://palgeo.firebaseio.com",
    "project_id": "palgeo",
    "storage_bucket": "palgeo.appspot.com"
  },
  "client": [
    {
      "client_info": {
        "mobilesdk_app_id": "1:673184145048:android:7fd61069f96af9df51faed",
        "android_client_info": {
          "package_name": "com.palgeo"
        }
      },
      "oauth_client": [
        {
          "client_id": "673184145048-879ne18t4h4cmlss0e7k0haafbtn4fks.apps.googleusercontent.com",
          "client_type": 3
        }
      ],
      "api_key": [
        {
          "current_key": "AIzaSyD9cG0bT43z4-lSf5h0e0HlbKpknuXbVtA"
        }
      ],
      "services": {
        "appinvite_service": {
          "other_platform_oauth_client": [
            {
              "client_id": "673184145048-879ne18t4h4cmlss0e7k0haafbtn4fks.apps.googleusercontent.com",
              "client_type": 3
            }
          ]
        }
      }
    }
  ],
  "configuration_version": "1"
}